<?xml version="1.0" encoding="utf-8"?>
<!-- Generator: Adobe Illustrator 19.0.0, SVG Export Plug-In . SVG Version: 6.00 Build 0)  -->
<svg version="1.1" id="Layer_1" xmlns="http://www.w3.org/2000/svg" xmlns:xlink="http://www.w3.org/1999/xlink" x="0px" y="0px"
	 viewBox="0 0 527.8 300" style="enable-background:new 0 0 527.8 300;" xml:space="preserve">
<style type="text/css">
	.st0{fill:#9E9E9E;}
	.st1{fill:#01E4D1;}
</style>
<g>
	<g>
		<path class="st0" d="M-320.3,132.7c-7.3,0-13.3,2.8-16.6,7.7v-4.8c0-0.9-0.6-1.5-1.5-1.5h-8c-0.9,0-1.5,0.6-1.5,1.5v52.9
			c0,0.9,0.6,1.5,1.5,1.5h8c0.9,0,1.5-0.6,1.5-1.5v-31.2c0-8.6,5.4-14.4,13.5-14.4c8.6,0,13.1,5.2,13.1,15v30.5
			c0,0.9,0.6,1.5,1.5,1.5h8c0.9,0,1.5-0.6,1.5-1.5v-33C-299.2,141.5-307.3,132.7-320.3,132.7z"/>
		<path class="st0" d="M-206.8,132.6c-11.8,0-20.4,6-23.8,16.3c-1.3,3.8-2,7.7-2,14.4c0,3.8,0.6,7.4,1.6,10.9l0.1,0.3
			c3.3,10.5,12.6,16.7,24.7,16.7c9.8,0,18.4-3.8,23.6-10.4c0.6-0.8,0.6-1.6-0.2-2.1l-5.1-4.6c-0.7-0.6-1.5-0.5-2.3,0.3
			c-2.6,3-7.3,6.5-15.2,6.5c-7.4,0-13.1-3.2-15.3-9.9c-0.4-1.2-0.6-2.7-0.6-2.9c0-0.3,0.1-0.5,0.5-0.5h38c1,0,1.7-0.6,1.7-1.5
			c0-9.5-0.7-13.5-1.9-17.2C-186.4,138.6-195.1,132.6-206.8,132.6z M-220.3,151.7c1.9-5.8,7.4-9.2,14.1-9.2s11.6,3.4,13.5,9.2
			c0.6,1.8,0.9,3.8,0.9,6.7c0,0.4-0.7,0.5-1,0.5H-221c-0.3,0-0.5-0.1-0.5-0.5C-221.5,155.5-220.9,153.4-220.3,151.7z"/>
		<path class="st0" d="M-154.1,180.3h-2.4c-4.2,0-5.7-1.7-5.7-6.4v-63.6c0-0.9,0-1.6,0-1.5h-9.5c-0.9,0-1.5,0.6-1.5,1.5v64.2
			c0,11.3,4.5,16.1,14.9,16.1h4.3c0.9,0,1.5-0.6,1.5-1.5v-7.3C-152.6,180.9-153.2,180.3-154.1,180.3z"/>
		<path class="st0" d="M-96,181.8c-2.2,0-2.8-0.6-3-3.3v-25.2c0-14.9-6.7-21.1-23.8-21.1c-8.3,0-15.7,2.5-20.6,6.3
			c-0.6,0.6-0.7,1.3-0.3,2.1l3.4,5.8c0.4,0.7,1.4,0.8,2.2,0.2c4.1-2.9,8.5-4.6,14.4-4.6c11.7,0,14.1,4.5,14.1,11.7
			c0,0.3-0.1,0.5-0.5,0.5h-13.7c-15.5,0-23.7,6.5-23.7,18.8c0,11.3,7.8,18.3,20.5,18.3c7.8,0,14.1-2.6,17.4-7.1
			c0.3,4.6,1.7,6.3,7.7,6.3l7.3,0v-7.5C-94.6,182.4-95.2,181.8-96,181.8z M-124.5,181.8c-7.9,0-12.2-3.2-12.2-9.1
			c0-6.7,4.4-9.5,14.6-9.5h12c0.3,0,0.5,0.1,0.5,0.5v6.6C-109.7,177.5-115.2,181.8-124.5,181.8z"/>
		<path class="st0" d="M-249.8,108.6c-0.9,0-1.5,0.6-1.5,1.5v27.6c-2.8-3.3-9.1-5.2-16.3-5.2c-10.7,0-19.1,5.6-22.3,15.1
			c-1.5,4.5-2.3,8.9-2,14.8c0.2,4.2,0.5,9.7,2.3,14.3c3.7,9.7,11.3,14.6,21.5,14.6c8.1,0,14.3-2.1,16.9-5.6v2.7
			c0,0.9,0.6,1.5,1.5,1.5h8c0.9,0,1.5-0.6,1.5-1.5v-78.3c0-0.9,0-1.6,0-1.5H-249.8z M-251.2,166.8c0,8.4-6.7,15.1-14.9,15.1
			c-8.2,0-14.9-5.9-14.9-16.5v-1.7c0-0.3,0-0.6,0-0.9c0-0.4,0-0.8,0-1.2V159c0-10.5,6.7-17.1,14.9-17.1c8.2,0,14.9,6.8,14.9,15.1
			V166.8z"/>
		<path class="st0" d="M-355.3,187l-28.5-70.6c-0.6-1.8-2.3-5-5.8-5c-3.5,0-5.1,3.1-5.8,5l-28.5,70.6c0,0-1.1,2.4-0.9,2.7
			c0.2,0.3,0.6,0.5,1,0.5h8.8c0.9,0,1.5-0.4,1.9-1.4l7-17.2h16.5h0h16.4l7.1,17.2c0.4,1,1,1.4,1.9,1.4h8.8c0.5,0,0.8-0.2,1-0.5
			C-354.2,189.4-355.3,187-355.3,187z M-389.6,160.7L-389.6,160.7h-12.3l12.3-29.8v0l0,0l0,0v0l12.3,29.8H-389.6z"/>
	</g>
	<path class="st0" d="M-519.2,105.2l-9.1-11.2l-9.1,11.2l-12.2-6.6c0,0,14.7-17.3,16.2-19.1c1.5-1.8,2.9-3.5,5.1-3.6v0c0,0,0,0,0,0
		c0,0,0,0,0,0v0c2.3,0.1,3.6,1.8,5.1,3.6c1.5,1.8,16.2,19.1,16.2,19.1L-519.2,105.2z"/>
	<path class="st0" d="M-549.6,201.4c0,0,14.7,17.3,16.2,19.1c1.5,1.7,2.9,3.5,5.1,3.6v0c0,0,0,0,0,0c0,0,0,0,0,0v0
		c2.3-0.1,3.6-1.8,5.1-3.6c1.5-1.8,16.2-19.1,16.2-19.1l-12.2-6.6l-9.1,11.2l-9.1-11.2L-549.6,201.4z"/>
	<path class="st0" d="M-553.6,111.9l-14.3-1.5l1.5,14.3l-13.4,4c0,0-1.9-22.6-2.1-25c-0.2-2.3-0.4-4.5,1.1-6.1l0,0c0,0,0,0,0,0
		c0,0,0,0,0,0l0,0c1.6-1.5,3.8-1.3,6.1-1.1c2.3,0.2,25,2.1,25,2.1L-553.6,111.9z"/>
	<path class="st0" d="M-507,201.4c0,0,22.6,1.9,25,2.1c2.3,0.2,4.5,0.4,6.1-1.1l0,0c0,0,0,0,0,0c0,0,0,0,0,0l0,0
		c1.5-1.6,1.3-3.8,1.1-6.1c-0.2-2.3-2.1-25-2.1-25l-13.3,4l1.5,14.3l-14.3-1.5L-507,201.4z"/>
	<path class="st0" d="M-573.1,140.9l-11.2,9.1l11.2,9.1l-6.6,12.2c0,0-17.3-14.7-19.1-16.2c-1.8-1.5-3.5-2.9-3.6-5.1h0c0,0,0,0,0,0
		c0,0,0,0,0,0h0c0.1-2.3,1.8-3.6,3.6-5.1c1.8-1.5,19.1-16.2,19.1-16.2L-573.1,140.9z"/>
	<path class="st0" d="M-476.9,171.3c0,0,17.4-14.7,19.1-16.2c1.7-1.5,3.5-2.9,3.6-5.1h0c0,0,0,0,0,0c0,0,0,0,0,0l0,0
		c-0.1-2.2-1.8-3.6-3.6-5.1c-1.8-1.5-19.1-16.2-19.1-16.2l-6.6,12.2l11.2,9.1l-11.2,9.1L-476.9,171.3z"/>
	<path class="st0" d="M-566.4,175.3l-1.5,14.3l14.3-1.5l4,13.4c0,0-22.6,1.9-25,2.1c-2.3,0.2-4.5,0.4-6.1-1.1l0,0c0,0,0,0,0,0
		c0,0,0,0,0,0l0,0c-1.5-1.6-1.3-3.8-1.1-6.1c0.2-2.3,2.1-25,2.1-25L-566.4,175.3z"/>
	<path class="st0" d="M-476.9,128.7c0,0,1.9-22.6,2.1-25c0.2-2.3,0.4-4.5-1.1-6.1l0,0c0,0,0,0,0,0c0,0,0,0,0,0l0,0
		c-1.6-1.5-3.8-1.3-6.1-1.1c-2.3,0.2-25,2.1-25,2.1l4,13.3l14.3-1.5l-1.5,14.3L-476.9,128.7z"/>
</g>
<rect x="-800.2" y="963.7" class="st1" width="66" height="66"/>
<rect x="-800.2" y="1039.1" class="st0" width="66" height="66"/>
<g>
	<g>
		<path class="st0" d="M10,221.3V117.5h16.4v103.8C26.4,221.3,10,221.3,10,221.3z M112.1,221.3H95.5v-78.1c0-1.2-0.2-2.5-0.5-3.9
			c-0.4-1.5-1.2-2.9-2.2-4c-1.2-1.3-2.8-2.3-5-3.2c-2.1-0.9-5-1.3-8.5-1.3c-3.6,0-6.6,0.4-8.9,1.3c-2.3,0.9-4,1.9-5.3,3.1
			c-1.1,1-2,2.4-2.4,3.9c-0.4,1.4-0.6,2.6-0.6,3.7v78.5H45.5V140c0-1.6,0.3-3.7,0.8-6.4c0.5-2.6,1.9-5.3,4.2-8
			c2.3-2.6,5.6-4.9,10.1-6.9c4.4-1.9,10.5-2.9,18.4-2.9s13.9,1,18.4,2.9c4.4,1.9,7.8,4.2,10,6.9c2.2,2.6,3.6,5.3,4.1,8.1
			s0.8,4.8,0.8,6.3L112.1,221.3L112.1,221.3z M177.2,206.4v14.9c-7.8,0-13.9-1-18.4-2.9c-4.4-1.9-7.8-4.2-10.1-6.9
			c-2.3-2.6-3.7-5.3-4.2-8c-0.5-2.7-0.8-4.8-0.8-6.3V130h-12.5v-14.1h12.5V89.5h16.6v26.4h16.8V130h-16.8v63.8
			c0,1.2,0.2,2.5,0.5,3.9c0.3,1.4,1.1,2.8,2.2,4.1c1.2,1.3,2.8,2.4,5,3.3c2.1,0.9,5,1.3,8.5,1.3H177.2L177.2,206.4z M224.2,115.9
			c7.8,0,13.9,1,18.4,2.9s7.7,4.2,10,6.9c2.2,2.6,3.6,5.3,4.1,8.1c0.5,2.7,0.8,4.8,0.8,6.3v9.5c0,2.3-0.4,4.8-1.3,7.6
			c-0.8,2.8-2.8,5.8-6,8.9c-1.3,1.5-3,2.8-4.9,3.6c-1.6,0.7-3.2,1.3-4.9,1.8c-1.7,0.5-3.5,0.8-5.3,0.8h-14.8c-3.4,0-6.4,1.3-9,3.8
			c-2.6,2.5-3.9,5.6-3.9,9.3v8.9c0,3.2,0.6,5.7,1.8,7.6c0.5,0.9,1.1,1.7,1.8,2.4c0.7,0.7,1.6,1.3,2.9,1.8c1,0.5,2.4,1,4,1.4
			c1.6,0.4,3.7,0.6,6.3,0.6c3.4,0,6.1-0.4,8-1.1c2-0.7,3.3-1.4,4.1-1.9c1.7-1.3,2.9-2.9,3.5-4.8c0.6-1.9,1-3.8,1-6h16.6v4.8
			c0,3.6-0.7,6.9-2.2,9.9c-1.5,3.1-3.8,5.7-6.9,8c-2.2,1.6-5.3,3-9.2,4.2c-3.9,1.2-8.9,1.8-14.8,1.8c-4.4,0-8.3-0.4-11.5-1.1
			c-2.9-0.6-5.8-1.6-8.5-2.8c-2.2-1-4.2-2.3-6-3.9c-1.4-1.3-2.8-2.8-3.9-4.4c-2.3-3.4-3.4-7.4-3.3-11.9V140c0-1.6,0.3-3.7,0.8-6.4
			c0.5-2.6,1.9-5.3,4.1-8c2.2-2.6,5.5-4.9,10-6.9S216.4,115.9,224.2,115.9L224.2,115.9z M240.8,144.9v-1.8c0-1.2-0.2-2.5-0.5-3.9
			c-0.4-1.5-1.2-2.9-2.2-4c-1.2-1.3-2.8-2.3-5-3.2c-2.1-0.9-5-1.3-8.5-1.3c-3.6,0-6.6,0.4-8.9,1.3c-2.3,0.9-4,1.9-5.3,3.1
			c-1.1,1-2,2.4-2.4,3.9c-0.4,1.4-0.6,2.6-0.6,3.7v20.7c0.3-1.2,0.8-2.2,1.8-2.9c0.9-0.7,2-1.3,3.1-1.7c1.2-0.4,2.3-0.7,3.5-0.8
			c1.2-0.1,2.1-0.2,2.7-0.2h11.1c3,0,5.6-1.1,7.8-3.3c2.2-2.2,3.3-4.8,3.3-7.8V144.9z M278.1,221.3V77.1h16.4v144.1H278.1z
			 M316,221.3V117.5h16.4v103.8C332.4,221.3,316,221.3,316,221.3z M384.7,115.9c11.5,0,19.9,2.3,25.2,6.9c5.3,4.6,8,10.3,8,17.2
			v58.9c0,2.4-0.4,5-1.3,7.9c-0.8,2.9-2.5,5.5-5,7.9c-2.5,2.4-5.9,4.4-10.2,6c-4.3,1.6-9.9,2.4-16.8,2.4s-12.5-0.8-16.8-2.4
			c-4.3-1.6-7.7-3.6-10.2-6c-2.5-2.4-4.1-5-5-7.8c-0.8-2.9-1.3-5.5-1.3-7.9v-9.3c0-5,1.3-9.6,3.8-13.7c2.5-4.1,6.2-7,10.8-8.7
			c2.3-0.8,5-1.7,8-2.8l8.7-3.1c2.8-1,5.2-1.9,7.3-2.7c1.3-0.5,2.6-1,3.9-1.4c0.5-0.3,1.2-0.6,2.1-1.1c0.8-0.5,1.7-1.2,2.4-2.1
			c0.8-0.9,1.5-2,2.1-3.2c0.6-1.2,0.9-2.6,0.9-4.2v-3.8c0-1.3-0.3-2.7-0.8-4.1c-0.6-1.5-1.5-2.8-2.7-3.9c-1.3-1.2-3-2.2-5.2-2.9
			c-2.1-0.7-4.9-1.1-8.1-1.1c-6.5,0-10.9,1.4-13.2,4.1c-2.3,2.7-3.4,6-3.4,9.8h-16.6V140c0-3.3,0.6-6.4,1.9-9.3
			c1.2-2.9,3.2-5.5,6-7.7c2.7-2.2,6.2-3.9,10.4-5.2C373.9,116.5,378.9,115.9,384.7,115.9z M401.5,168.6c-0.2,1.2-0.9,2.3-2,3
			c-1,0.7-2,1.1-2.9,1.4c-2,0.7-4.1,1.4-6.3,2.3c-2.3,0.9-4.4,1.6-6.3,2.3c-2.2,0.8-4.4,1.5-6.6,2.4c-1.6,0.7-3.1,1.6-4.5,2.8
			c-1.3,1.2-2.4,2.6-3.2,4.1c-1,1.7-1.5,3.7-1.5,6.3c0,5,1.2,8.8,3.5,11.2c2.3,2.5,6.7,3.7,13.1,3.7c6.5,0,10.9-1.3,13.3-3.9
			c2.3-2.6,3.5-6.3,3.5-11C401.5,193,401.5,168.6,401.5,168.6z"/>
	</g>
	<g>
		<g>
			<path class="st0" d="M495.8,191.3c-5.9,0-11.4-2.5-15.6-6.9l-29.6-31.8c-8.6-9.2-8.6-24.2,0-33.4c4.2-4.5,9.7-6.9,15.6-6.9
				c0,0,0,0,0,0c5.9,0,11.4,2.5,15.6,6.9l29.6,31.8c8.6,9.2,8.6,24.2,0,33.4C507.2,188.9,501.7,191.3,495.8,191.3
				C495.8,191.3,495.8,191.3,495.8,191.3z M454.3,122.5l3.6,3.3c-5.1,5.4-5.1,14.6,0,20.1l29.6,31.8c4.6,4.9,12.2,4.9,16.8,0
				c5.1-5.4,5.1-14.6,0-20.1l-29.6-31.8c-2.3-2.4-5.3-3.8-8.4-3.8c0,0,0,0,0,0c-3.1,0-6.1,1.3-8.4,3.8L454.3,122.5z"/>
		</g>
		<g>
			<path class="st0" d="M466.2,222.9C466.2,222.9,466.2,222.9,466.2,222.9c-5.9,0-11.4-2.5-15.6-6.9c-8.6-9.2-8.6-24.2,0-33.4
				l29.6-31.8c4.2-4.5,9.7-6.9,15.6-6.9c0,0,0,0,0,0c5.9,0,11.4,2.5,15.6,6.9c8.6,9.2,8.6,24.2,0,33.4L481.8,216
				C477.6,220.4,472.1,222.9,466.2,222.9z M457.9,209.3c2.3,2.4,5.2,3.8,8.4,3.8h0c3.1,0,6.1-1.4,8.4-3.8l29.6-31.8
				c5.1-5.4,5.1-14.6,0-20.1c-2.3-2.5-5.3-3.8-8.4-3.8l0,0c-3.1,0-6.1,1.4-8.4,3.8l-29.6,31.8C452.8,194.6,452.8,203.8,457.9,209.3z
				"/>
		</g>
	</g>
</g>
<g>
	<path class="st0" d="M630.9,179c4.9-0.7,9.9-1.3,14.8-2.3c10-2,14-6.7,14.2-16.9c0.3-13.9,0.5-27.8,0.4-41.7c0-4.6,0.9-6.6,6-6.3
		c10,0.6,8.5-1,8.2,8.8c-0.4,15.2,0.8,30.4-1.3,45.5c-2.1,14.7-9.2,22.3-23.8,25.5c-6.1,1.4-12.3,2.9-18.6,2.9
		C630.9,189.3,630.9,184.1,630.9,179z"/>
	<path class="st0" d="M1104.2,206.8c-4-3.1-7.6-6.4-7.5-12.1c0.1-5.1,3.8-9.9,8.5-11.1c5-1.3,10.2,1,12.8,5.5
		c2.7,4.7,2,10.5-1.9,14.3c-1.3,1.3-2.8,2.3-4.2,3.5C1109.4,206.8,1106.8,206.8,1104.2,206.8z"/>
	<path class="st0" d="M1049.6,206.8c-3.4-2.5-6.8-5.1-7.6-9.7c-0.9-5.4,2.1-11.1,7.1-13.1c4.7-1.9,10.3-0.3,13.3,3.9
		c3.3,4.6,2.9,11.2-1,15.3c-1.2,1.3-2.7,2.4-4.1,3.6C1054.8,206.8,1052.2,206.8,1049.6,206.8z"/>
	<path class="st0" d="M873.7,141.6c-7.6,11.4-15.1,22.7-22.7,34.1c-2.1,3.1-4,6.2-6.2,9.2c-5.3,7.4-12.6,7.5-17.7,0
		c-8.9-13-17.5-26.2-26.3-39.3c-1-1.5-2.1-3-3.3-4.7c-1.4,1.7-0.9,3.4-0.9,4.9c-0.1,13-0.2,26,0.1,39c0.1,3.9-1.1,5.2-5,5.1
		c-11.5-0.3-9.4,1.2-9.5-9.3c-0.1-19.5,0-39-0.1-58.5c0-4.1,0.3-8.2,4.9-9.6c4.8-1.5,8.6,0.3,11.5,4.5c11.3,16.3,22.6,32.6,34,48.9
		c1.1,1.6,2.3,3.2,3.8,5.2c11.9-17.4,23.4-34.2,34.9-51c1.2-1.7,2.3-3.4,3.5-5c2.5-3.1,6-3.7,9.6-2.6c3.4,1.1,5,3.8,5.1,7.3
		c0.1,22.3,0.1,44.5,0.1,66.8c0,2.4-0.9,3.1-3.3,3.3c-11,1-11.2,0.9-11.2-9.9c0-12.6,0-25.2,0-37.8
		C874.5,141.9,874.1,141.8,873.7,141.6z"/>
	<path class="st0" d="M1111.9,161c-0.1,1.3-0.6,2.5-1.2,3.7c-1.2,2.5-3.4,3.4-6,2.9c-2.8-0.6-3.2-2.8-2.9-5.2c0.3-2,0.5-4.1,1-6
		c0.8-3.1-0.2-4.4-3.2-5.7c-13.1-5.6-20.1-17.1-19.2-31.4c0.2-3.7-0.9-4.4-4.2-4.4c-9.5,0.1-18.9,0-28.4,0c-9.7,0-9.7,0-12.3-9.5
		c-0.9-3.4-2-6.8-5.9-7.3c-4.4-0.5-8.9-0.4-13.3-0.1c-2.2,0.1-3.7,1.8-3.5,4.2c0.1,2.2,1.5,3.3,3.6,3.5c1.1,0.1,2.2,0.2,3.3,0.1
		c5.2-0.5,7.6,1.9,8.7,7c4.4,19,9.2,37.8,13.7,56.8c1.1,4.4,3,7.4,8.1,7.4c20.2-0.1,40.4,0,60.7,0c3,0,5.8-0.9,6.8-3.8
		c2.3-7,4.1-14.1,5.3-21.4C1116.1,151.3,1112.4,154.2,1111.9,161z M1044.1,137.8c-1-2.3-1.5-4.9-2.2-7.4c-1.1-4.3,0.4-6.4,4.9-6.1
		c2.8-0.1,5.7,0,6.4,3.1c0.9,3.8,3.1,7.8,1,11.7C1052.6,142.4,1045.8,141.5,1044.1,137.8z M1056.6,167.5c-2.4,0.7-4.7-0.1-5.6-2.3
		c-1.4-3.6-2.4-7.3-3.1-11.1c-0.4-2.1,1.2-3.4,3.2-3.7c2.8-0.4,5.4,0.2,6.3,3.2c0.9,3.2,1.3,6.5,1.9,9.4
		C1059.5,165.3,1058.6,166.8,1056.6,167.5z M1076.1,161.1c0,2.8,0.3,6.2-3.5,6.4c-3.7,0.2-4-3.1-4.4-5.9c-0.3-2-0.7-4-0.9-6
		c-0.4-3,0.5-5.2,3.9-5.4c3.1-0.1,4.7,1.7,4.9,4.8c0.1,1.5,0,2.9,0,4.4h0C1076.1,160,1076.1,160.6,1076.1,161.1z M1070.4,141
		c-6.1-0.1-6.2-3.2-7.3-12.1c-0.6-4.7,3.1-4.6,6.4-4.6c5.8,0,6.6,1,6.6,8.1C1076.1,136.6,1076.6,141,1070.4,141z M1093.9,155.6
		c-0.4,2.7-0.9,5.4-1.4,8.1c-0.5,2.4-1.7,4.3-4.5,3.8c-2.4-0.4-2.9-2.5-2.9-4.7c0-1.3,0-2.6,0-3.9h0c0-1.5-0.1-2.9,0-4.4
		c0.2-3.2,2.3-4.6,5.2-4.2C1093.3,150.7,1094.4,152.8,1093.9,155.6z"/>
	<path class="st0" d="M1028,184c-13-22.4-25.8-44.9-39.1-67.2c-4.1-6.9-11.6-6.8-15.7,0.1c-13.9,23-27.4,46.2-41.1,69.2
		c-1.1,1.9-1.7,3.1,1.5,3.5c11.8,1.4,13.1,0.8,18.8-9.4c1.3-2.4,2.8-4.8,4-7.3c1.4-3.1,3.4-4.3,6.9-4.2c6.6,0.3,13.3,0,20,0.1
		c6.6,0.1,14.4-2.4,19.6,1c4.7,3,6.7,10.3,9.9,15.7c0.4,0.6,0.8,1.3,1.1,1.9c0.7,1.6,2,2.1,3.6,2.1h13.7
		C1029.5,186.8,1028.8,185.4,1028,184z M990.6,154.1c-3.3-0.1-6.7,0-10,0c-3.3,0-6.7-0.1-10,0c-2.9,0.1-3.1-1.1-1.8-3.3
		c3.4-5.5,6.6-11.1,9.9-16.7c1.1-1.8,2-2.6,3.4-0.2c3.4,5.7,6.9,11.4,10.4,17.1C994.2,153.5,993.2,154.2,990.6,154.1z"/>
	<path class="st0" d="M767.7,142c0,8.2,0.1,16.3,0,24.5c-0.2,12-5.6,19.1-17.2,21.1c-14.9,2.6-30,2.5-44.8,0.2
		c-11.6-1.8-17.3-8.6-17.6-20.2c-0.3-17.2,0-34.5-0.2-51.8c0-3.4,1.4-3.9,4.3-4c10.2-0.3,10.2-0.4,10.2,9.7c0,13.9,0,27.8,0,41.7
		c0,6.8,1.6,9.4,8.3,10.3c11.4,1.7,22.9,1.6,34.3,0.1c6.7-0.9,8.3-3.5,8.4-10.2c0-15.4,0.1-30.8-0.1-46.2c-0.1-3.9,0.7-5.6,5.1-5.4
		c11.3,0.5,9.1-1.3,9.3,9.5C767.8,128.2,767.7,135.1,767.7,142z"/>
	<path class="st0" d="M1112.4,93.2c-14.7-0.1-26.9,12.2-26.7,26.9c0.2,14.7,12.2,26.6,26.6,26.5c14.5-0.1,26.4-12.1,26.4-26.7
		C1138.7,105.2,1127,93.3,1112.4,93.2z M1130.6,116.1c-6.5,4.7-8.5,10.5-5.9,18.2c1.2,3.4-0.9,3.4-3.2,2.1c-0.7-0.3-1.4-0.6-2-1
		c-4.9-3.8-9.7-3.7-14.7,0c-1.2,0.9-3,2.4-4.5,1.3c-1.4-1-0.8-3.2-0.3-4.7c2.1-6.1,0.4-10.8-4.7-14.6c-1.2-0.9-3.2-2-2.5-3.9
		c0.6-1.5,2.6-1.4,4-1.4c6.6,0.1,10.7-3,12.7-9.3c0.5-1.5,1-3.2,3-4.2c0.5,0.7,1.2,1.3,1.5,2.1c2.4,7.5,6.8,11.9,15.2,11.5
		C1131.8,112.3,1133.4,114,1130.6,116.1z"/>
	<path class="st0" d="M903.6,150.6c0-11.3,0.1-22.6-0.1-33.9c-0.1-3.5,0.8-4.8,4.6-4.8c10,0,10-0.2,10,10c0,20.6-0.1,41.2,0.1,61.7
		c0,4.3-1.1,5.7-5.5,5.6c-9.1-0.3-9.1,0-9.1-9.1C903.6,170.2,903.6,160.4,903.6,150.6z"/>
</g>
<g>
	<path class="st0" d="M1258,143.5c0.4-0.3,0.7-0.5,0.8-0.7c7.4-18.4,22.3-29,39.2-37.3c10.9-5.3,22.4-8,34.6-6.8
		c9.1,0.9,13.4,6.5,10.2,15.1c-2.3,6.1-5.7,12-9.5,17.4c-3.7,5.2-8.5,9.6-13.1,14.7c0.6,0.5,1.4,1.3,2.3,2.1
		c9.4,7.9,17.7,16.7,22.2,28.4c1.4,3.7,2.2,7.9,2.4,11.9c0.3,6.3-3.1,10.4-9.2,12.3c-6.7,2-13.2,1-19.6-1.3
		c-16.2-5.8-29.3-15.9-39.2-29.8c-3.4-4.8-7.3-5.4-12.6-5.7c3.7,12.3,6.9,24.5,6.4,37.3c-3.3-25.7-14.7-47.7-30.6-67.7
		c-1.2-1.5-2.4-3.2-2.8-5c-0.3-1.4,0.1-3.6,1.1-4.5c0.7-0.6,3.3-0.2,4.2,0.6c2.1,1.8,3.8,4.1,5.3,6.4
		C1252.9,135,1255.4,139.3,1258,143.5z M1280,130.4c11.2-0.8,20.5,3,29.2,8.3c1.8,1.1,3,0.2,4.3-0.8c6.7-5.5,12.5-11.7,17.1-19.1
		c1.3-2.1,2.3-4.4,3-6.7c1.3-4.2-0.8-7.3-5.2-7.7c-2.5-0.2-5.2-0.3-7.7,0.2c-15.9,3.4-28.5,12.5-39.6,23.9
		C1280.8,128.8,1280.6,129.3,1280,130.4z M1283.7,164c4.3,6.6,15.6,15.9,25.1,20c4.3,1.8,8.9,3.3,13.5,3.9c6.3,0.9,9.5-3.2,7.9-9.4
		c-2.8-10.8-10-18.6-18-25.7c-0.5-0.5-2.2-0.2-3,0.2c-4,2-7.9,4.3-12,6.1C1292.9,161,1288.3,162.4,1283.7,164z M1300.8,145
		c0.1-0.5,0.2-1,0.3-1.5c-4.9-2-9.7-4.2-14.7-5.7c-2.6-0.8-5.8-0.8-8.5,0c-1.8,0.5-4,2.7-4.3,4.4c-0.3,1.7,1.2,4.2,2.6,5.6
		c1.1,1.2,3.2,1.8,4.9,1.9C1288.1,150,1294.5,147.8,1300.8,145z"/>
	<path class="st0" d="M1590.7,158c-1.4,4.5-2.8,8.9-4.2,13.4c-0.9,2.8-2,5.2-5.5,5.3c-3.7,0.1-4.9-2.3-5.9-5.2
		c-2.5-7.2-5.1-14.4-7.5-21.6c-1.4-4.3,1.2-7.9,5-6.7c1.5,0.5,3.1,2.3,3.7,3.9c1.8,4.8,3.1,9.8,4.8,15.5c1.7-5.6,3.3-10.3,4.7-15.1
		c0.8-2.7,2.2-4.5,5.4-4.5c3.2,0,4.6,1.7,5.4,4.5c1.4,4.8,3,9.5,4.8,15.2c1.7-5.6,3-10.4,4.8-15.1c0.6-1.6,1.9-3.4,3.4-4.2
		c1-0.5,3.6,0,4.3,1c1,1.4,1.5,3.7,1,5.2c-1.7,5.7-3.9,11.4-5.9,17c-0.8,2.1-1.5,4.3-2.3,6.4c-0.9,2.4-2.6,3.8-5.4,3.8
		c-2.8-0.1-4.3-1.6-5.1-4.1c-1.6-4.9-3.1-9.7-4.7-14.6C1591.2,158,1591,158,1590.7,158z"/>
	<path class="st0" d="M1639.8,173.2c-4.1,3.4-8.7,4.3-13.7,2.9c-4.5-1.3-7-4.6-7.1-9.2c-0.1-4.9,2-8.6,6.8-9.7c4.5-1,9.2-0.8,14-1.1
		c0.3-2.1-0.8-4.1-3.8-4.5c-2.7-0.3-5.5-0.1-8.3,0.3c-3.4,0.5-5.4-0.1-6-2.6c-0.7-2.4,0.7-4.5,4-5c4.2-0.7,8.5-1.4,12.7-0.9
		c6.9,0.7,10.6,5.5,10.7,12.6c0.1,4.6,0,9.2,0,13.8c0,2.7,0,5.3-3.1,6.3C1643.2,177.2,1641.2,175.7,1639.8,173.2z M1635,161.8
		c-4.4,0-6.7,1.6-6.8,4.4c0,2.4,1.9,3.9,4.9,3.9c4,0.1,7.2-2.4,7-5.5C1639.8,160.9,1636.5,162.7,1635,161.8z"/>
	<path class="st0" d="M1699,163.1c0.8,5.3,5.9,7.5,11.3,5.3c0.9-0.4,1.7-0.9,2.5-1.4c2.1-1.2,4-1,5.4,1c1.3,1.9,0.7,3.8-1,5.1
		c-5.3,4.1-11.3,4.6-17.4,2.6c-6-2-9.6-6.4-10.6-12.7c-1.9-12.6,7.2-22,19.3-20c7.1,1.2,12.8,8.3,12.5,15.4c-0.1,3-1.8,4.6-5,4.6
		C1710.3,163.1,1704.7,163.1,1699,163.1z M1698.8,156.7c4.3,0,8.6,0,12.9,0c-1-4.4-3.1-6.3-6.8-6.2
		C1701.5,150.6,1699.4,152.7,1698.8,156.7z"/>
	<path class="st0" d="M1669.7,164.8c2.4-6.2,4.4-11.6,6.4-17c0.3-0.7,0.5-1.4,0.8-2.1c1.3-2.5,3.4-3.4,5.9-2.3
		c2.5,1.1,3.6,3.2,2.5,5.8c-3.4,8.1-6.9,16.2-10.5,24.2c-1,2.2-2.8,3.4-5.4,3.3c-2.6-0.1-4.2-1.4-5.2-3.6
		c-3.4-7.7-6.8-15.5-10.1-23.3c-1.2-3-0.3-5.4,2.2-6.5c2.6-1.1,5.2,0,6.4,3.1C1665.1,152.2,1667.2,158.1,1669.7,164.8z"/>
	<path class="st0" d="M1512.5,161.9c0.2,9.5,9.8,14.8,18,10.4c0.9-0.5,1.7-1.3,2.7-1.7c1-0.4,2.1-0.4,3.2-0.6
		c-0.4,1-0.5,2.3-1.3,2.9c-5.1,4.3-11,5.4-17.1,2.8c-6.2-2.7-9.2-7.9-9.3-14.6c-0.1-6.7,2.5-12.2,8.7-15.3
		c9.6-4.7,21.1,3.2,20.4,13.9c-0.1,2.1-1.2,2.4-3,2.4c-6.2,0-12.5,0-18.7,0C1515.1,161.9,1513.9,161.9,1512.5,161.9z M1534,158.7
		c0.2-6.7-4.4-11.6-10.7-11.5c-6,0.1-10.9,5.4-10.6,11.5C1519.8,158.7,1526.9,158.7,1534,158.7z"/>
	<path class="st0" d="M1375.2,136.7c0,5.9,0,11.3,0,17.1c6.6,0,13-0.1,19.4,0.1c1.6,0,3.9-1.2,4.4,1.6c0,0.3-2.9,1.4-4.5,1.5
		c-6.3,0.2-12.6,0.1-19.5,0.1c0,4.8,0,9.4,0,14c0,1,0.2,2-0.1,2.9c-0.3,0.9-1,1.6-1.6,2.4c-0.6-0.8-1.8-1.6-1.8-2.5
		c-0.2-6.5-0.1-13.1-0.1-19.7c0-5.8,0.1-11.6,0-17.4c0-2.3,0.8-3.3,3.2-3.3c8.2,0.1,16.3,0,24.5,0.1c0.9,0,1.8,0.9,2.8,1.5
		c-1,0.6-2,1.6-2.9,1.6C1391.2,136.7,1383.4,136.7,1375.2,136.7z"/>
	<path class="st0" d="M1448.6,172.6c-3.1,1.4-5.9,3.5-9,3.9c-8.9,1.2-14.2-3.5-14.5-12.5c-0.2-5.5-0.1-10.9,0-16.4
		c0-0.9,0.9-1.9,1.4-2.8c0.6,0.9,1.8,1.8,1.8,2.8c0.2,5.3,0.1,10.5,0.1,15.8c0,6.4,3.4,10.3,9.2,10.5c5.8,0.3,10.6-4.1,10.9-10.3
		c0.2-5.3,0-10.5,0.2-15.8c0-1,1-2,1.5-3c0.5,1,1.5,2,1.5,3c0.1,8.4,0.1,16.7,0,25.1c0,1.1-1,2.2-1.5,3.3c-0.5-1.1-1.1-2.2-1.6-3.3
		C1448.6,172.6,1448.6,172.3,1448.6,172.6z"/>
	<path class="st0" d="M1464.7,149.1c-1.9-1.2-3.2-2-4.5-2.8c1.3-0.6,2.6-1.3,4.5-2.2c0-1.8-0.2-4.2,0.1-6.6c0.1-0.9,1.1-1.7,1.7-2.6
		c0.5,0.8,1.4,1.6,1.4,2.5c0.2,2.3,0.1,4.7,0.1,7.6c1.9,0,3.7-0.2,5.4,0.1c1.9,0.3,4.4-1.5,5.6,1.5c-1.9,0.5-3.8,1.1-5.7,1.3
		c-1.6,0.2-3.2,0-5.1,0c0,7.3-0.2,14.4,0.1,21.4c0.2,3.4,2.9,4.5,7.5,4.2c1-0.1,2.1,0.5,3.2,0.8c-0.9,0.7-1.7,1.8-2.7,2.1
		c-6.5,1.7-11.4-2.2-11.4-8.9C1464.7,161.1,1464.7,154.7,1464.7,149.1z"/>
	<path class="st0" d="M1492.5,145c2.5,0,4.8-0.2,7,0.1c1.4,0.2,2.6,1,4,1.5c-1.4,0.5-2.7,1.2-4.1,1.3c-2.1,0.2-4.3,0.1-6.7,0.1
		c0,7.3-0.2,14.4,0.1,21.4c0.2,3.4,2.9,4.5,7.5,4.2c1-0.1,2.1,0.5,3.2,0.8c-1,0.7-1.9,1.9-3,2.1c-6.4,1.4-11.1-2.3-11.1-8.9
		c-0.1-6.4,0-12.8,0-18.5c-1.9-1.2-3.2-2-4.5-2.7c1.3-0.6,2.6-1.3,4.5-2.2c0-1.7-0.2-4,0.1-6.3c0.1-1,1.1-1.9,1.7-2.9
		c0.5,0.9,1.4,1.8,1.5,2.8C1492.7,140,1492.5,142.3,1492.5,145z"/>
	<path class="st0" d="M1549.7,151.4c3.2-3.2,6.2-6.1,10.4-6.8c1-0.2,2.2,0.9,3.3,1.3c-0.9,0.7-1.6,1.9-2.6,2.1
		c-6.8,1.6-10.8,6.2-11.1,13.1c-0.2,4,0.1,7.9-0.1,11.9c-0.1,1-1.2,2-1.8,3.1c-0.5-1-1.4-2.1-1.4-3.1c-0.1-8.4-0.1-16.7,0-25.1
		c0-1,0.9-2,1.5-3.1c0.6,1.1,1.5,2,1.8,3.2C1550,149.1,1549.7,150.3,1549.7,151.4z"/>
	<path class="st0" d="M1411.3,153.7c0-6.4-0.1-12.9,0.1-19.3c0-1,1-2,1.6-3c0.5,1,1.5,2,1.5,3c0.1,13,0.1,25.9,0,38.9
		c0,0.9-0.9,1.8-1.3,2.8c-0.6-0.9-1.7-1.9-1.7-2.8C1411.2,166.8,1411.3,160.3,1411.3,153.7z"/>
	<path class="st0" d="M1747.3,143.7c-0.1,5.9-4.8,10.6-10.6,10.6c-6,0-10.8-4.8-10.7-10.9c0.1-6,5.1-10.8,11-10.7
		C1742.8,132.9,1747.3,137.7,1747.3,143.7z M1736.4,152.8c5.4,0.1,9.4-3.8,9.5-9.1c0.1-5.2-4.2-9.6-9.3-9.5c-4.9,0-9.2,4.4-9.3,9.3
		C1727.2,148.5,1731.3,152.7,1736.4,152.8z"/>
	<path class="st0" d="M1740.9,149c-1.9-1.5-3.8-3-6.1-4.9c-0.3,2.3-0.5,3.5-0.8,5.7c-0.8-1.3-1.3-1.8-1.4-2.4
		c-0.1-1.9,0.1-3.9-0.1-5.8c-0.4-3.1,1.1-4.2,3.8-3.6c1.7,0.4,3.9,1,4.8,2.3c0.6,1-0.5,3.1-1.1,5.4c0.2,0.4,0.9,1.6,1.6,2.8
		C1741.3,148.6,1741.1,148.8,1740.9,149z M1734.5,143.6c1.8-0.5,3.2-0.8,4.6-1.3c0.2-0.1,0.2-1.6,0-1.7c-1.4-0.5-2.9-0.8-4.6-1.2
		C1734.5,141,1734.5,141.9,1734.5,143.6z"/>
</g>
<g id="_x34_XIUDg.tif">
	<g>
		<path class="st0" d="M1906.5,66.4c2.1,0.2,4.1,0.4,6.2,0.7c11.7,1.6,22.1,6.3,31.1,13.9c1,0.9,2,1.8,3.1,2.7
			c0.5,0.4,0.5,0.8,0.1,1.3c-3.8,3.8-7.6,7.5-11.3,11.3c-0.7,0.7-1.1,0.3-1.6-0.2c-5.8-5.2-12.4-9-20-10.6
			c-15.2-3.3-29.1-0.3-41.1,9.9c-9.1,7.7-14.2,17.6-15.8,29.4c-1.3,9.8,0.1,19.3,4.7,28.1c7.7,14.8,20,23.3,36.7,25.1
			c9.2,1,18.2-0.3,26.5-4.6c11.6-6,18.4-15.4,20.2-28.4c0.2-1.3,0-1.5-1.5-1.5c-11.6,0.1-23.2,0.1-34.8,0.2c-1.5,0-3,0-4.5,0
			c-1,0-1.4-0.3-1.4-1.4c0-5.1,0-10.2,0-15.4c0-0.9,0.3-1.3,1.2-1.2c0.1,0,0.2,0,0.3,0c19,0,38,0,57,0c1.1,0,1.6,0.3,1.7,1.4
			c1.9,16.9-0.4,32.8-11.1,46.6c-9.2,11.9-21.6,19-36.5,21.5c-11.4,1.9-22.7,1.2-33.7-2.6c-12-4.2-22-11.2-30-21
			c-7.8-9.5-12.4-20.3-14.1-32.5c-0.3-2-0.4-4-0.6-6c0-1.3,0-2.6,0-3.8c0.1-0.4,0.2-0.8,0.2-1.2c0.3-8.6,2.5-16.8,6.3-24.5
			c4-8.2,9.5-15.2,16.4-21.2c9.2-7.9,19.8-12.9,31.7-15.1c2.7-0.5,5.4-0.6,8.1-1C1902,66.4,1904.2,66.4,1906.5,66.4z"/>
		<path class="st0" d="M2231.7,153.2c0,11.4,0,22.9,0,34.3c0,5.1-0.2,10.1-1.2,15.1c-2.5,12.1-8.4,21.7-20,27.1
			c-4.6,2.2-9.6,3.2-14.7,3.7c-6.3,0.5-12.4-0.1-18.2-2.4c-10.3-4-17.6-11.1-22.3-21.1c-0.4-0.8-0.2-1.2,0.6-1.6
			c4.6-1.9,9.2-3.8,13.8-5.8c1.1-0.5,1.4,0,1.8,0.9c2.5,5.2,6.3,9.2,11.6,11.6c7,3.3,19.2,2.3,25.2-4.6c3.2-3.7,4.7-8.1,5.4-12.9
			c0.5-3.2,0.3-6.5,0.3-9.7c0-0.4,0.1-0.8-0.4-1c-0.4-0.1-0.6,0.3-0.8,0.5c-4.8,5.2-10.9,8-17.8,8.5c-17.5,1.2-30.1-6.9-38.7-21.8
			c-3.1-5.4-4.6-11.4-4.8-17.6c-0.5-11.7,3.2-21.9,11-30.6c6.2-6.9,13.8-11.3,22.9-12.8c8.6-1.5,16.6-0.1,23.9,5
			c1.2,0.9,2.3,1.8,3.4,2.9c0.3,0.3,0.5,1,1.1,0.7c0.5-0.2,0.2-0.8,0.3-1.3c0-1.2,0-2.4,0-3.6c0-1.7,0-1.8,1.7-1.8
			c4.7,0,9.5,0,14.2,0c1.6,0,1.7,0.1,1.8,1.7c0,7.9,0,15.7,0,23.6C2231.7,144.6,2231.7,148.9,2231.7,153.2z M2169.9,154.6
			c0.1,7.2,2.5,13.7,7.9,18.9c9.6,9.3,25.3,7.8,32.8-3.2c4.3-6.3,5.4-13.3,4.3-20.8c-1-6.5-3.8-12-9.1-16c-8.6-6.5-20.5-5.6-28.2,2
			C2172.4,140.7,2170,147.1,2169.9,154.6z"/>
		<path class="st0" d="M1970.7,154.3c-0.2-22.8,17.4-41.8,41.9-41.8c24.9,0,42.1,19.3,42,42c-0.1,23-18,41.7-42.1,41.7
			C1988.5,196.2,1970.4,177.4,1970.7,154.3z M2036.1,154.5c-0.1-8.1-2.8-14.9-9-20.2c-9.1-7.7-23.9-6.5-31.5,2.6
			c-7.4,8.8-8.4,21.7-2.5,31.6c7.1,11.7,22.7,14.7,33.4,6.4C2033.1,169.7,2035.9,162.7,2036.1,154.5z"/>
		<path class="st0" d="M2061.1,154.4c-0.3-22.6,17.2-41.8,41.9-41.8c24.8,0,42,19.2,42,41.9c-0.1,22.9-17.9,41.8-42.1,41.7
			C2078.9,196.1,2060.8,177.4,2061.1,154.4z M2079.6,154.5c0,5.6,1.5,10.8,4.7,15.4c8.1,11.5,24.7,13.1,34.7,3.1
			c8.6-8.6,10-23.8,2.9-33.8c-8.6-12.2-25.5-13.6-35.7-2.8C2081.5,141.5,2079.6,147.6,2079.6,154.5z"/>
		<path class="st0" d="M2309.8,196.3c-11.4-0.2-21.2-3.7-29.2-11.3c-6.8-6.5-10.9-14.5-12.3-23.8c-1.4-9.6-0.2-18.8,4.3-27.5
			c6.2-11.9,16-19,29.4-20.8c12.5-1.7,23.2,2,31.9,11.2c4,4.3,7,9.2,9.2,14.7c0.5,1.2,1,2.4,1.4,3.6c0.6,1.6,0.6,1.6-0.9,2.2
			c-5.4,2.2-10.8,4.5-16.2,6.7c-12.3,5.1-24.5,10.2-36.8,15.2c-1,0.4-1.2,0.7-0.7,1.7c5,8.9,13,12.1,22.4,11.1
			c7.1-0.7,12.4-4.4,16.6-10c1.1-1.4,1.1-1.4,2.5-0.5c3.9,2.6,7.8,5.2,11.7,7.8c1,0.6,1.1,1.1,0.4,2.1c-7.3,9.8-16.9,15.7-29.1,17.1
			C2312.7,196.2,2311,196.4,2309.8,196.3z M2308.1,129c-0.6,0-1.2-0.1-1.8,0c-11.3,1.2-20.1,11.2-20.1,22.6c0,1.4,0.1,1.4,1.4,0.8
			c11.3-4.7,22.7-9.4,34-14.1c1.7-0.7,1.8-0.8,0.7-2.4c-0.1-0.1-0.1-0.2-0.2-0.3C2318.7,130.8,2313.7,129.2,2308.1,129z"/>
		<path class="st0" d="M2242.2,132.5c0-19.7,0-39.4,0-59.1c0-2.1,0-2.1,2.1-2.1c4.8,0,9.6,0,14.3,0c1.7,0,1.8,0,1.8,1.7
			c0,39.7,0,79.4,0,119.2c0,1.6-0.1,1.6-1.7,1.6c-4.9,0-9.8,0-14.7,0c-1.7,0-1.8,0-1.8-1.8C2242.2,172.1,2242.2,152.3,2242.2,132.5z
			"/>
	</g>
</g>
<g>
	<path class="st0" d="M2436,131.5c0.3-0.2,0.4-0.6,0.5-1c0.6-1.3,1.6-2.3,2.9-2.8c0.5-0.2,1-0.3,1.6-0.3c0.4,0,0.7,0,1.1,0
		c28.7,0,57.4,0,86.1,0c0.6,0,1.2,0,1.7,0.1c2.4,0.4,4.1,2.4,4.4,4.9c0,0.2,0,0.4,0,0.6c0,2.9,0,5.7,0,8.6c0,1.1-0.2,2.2-0.9,3.2
		c-1,1.5-2.4,2.3-4.3,2.4c-0.3,0-0.7,0-1,0c-28.6,0-57.2,0-85.9,0c-0.3,0-0.7,0-1,0c-2.2-0.1-3.7-1.1-4.7-3.1
		c-0.2-0.4-0.2-0.8-0.6-1.1C2436,139.1,2436,135.3,2436,131.5z"/>
	<path class="st0" d="M2436,157.1c0.3-0.2,0.4-0.6,0.5-0.9c0.4-0.9,0.9-1.6,1.7-2.2c0.9-0.7,1.9-1,3-1.1c0.3,0,0.7,0,1,0
		c27,0,53.9,0,80.9,0c0.5,0,1.1,0,1.6,0.1c2.6,0.4,4.3,2.4,4.5,5.1c0,0.2,0,0.3,0,0.5c0,2.9,0,5.7,0,8.6c0,1.3-0.4,2.6-1.3,3.6
		c-1,1.2-2.2,1.8-3.7,1.9c-0.4,0-0.8,0-1.2,0c-27,0-53.9,0-80.9,0c-0.3,0-0.6,0-0.9,0c-2.2-0.1-3.8-1.2-4.7-3.2
		c-0.2-0.3-0.2-0.7-0.5-1C2436,164.7,2436,160.9,2436,157.1z"/>
	<path class="st0" d="M2525.4,101.9c0.2,0.1,0.4,0.2,0.6,0.3c2.1,1,3.2,2.6,3.3,4.9c0,0.7,0,1.4,0,2.1c0,2.1,0,4.3,0,6.4
		c0,0.5,0,1.1-0.2,1.6c-0.5,2.5-2.6,4.2-5.1,4.2c-0.3,0-0.7,0-1,0c-26.9,0-53.8,0-80.6,0c-0.3,0-0.6,0-0.9,0
		c-2.3-0.1-3.9-1.1-4.8-3.2c-0.2-0.3-0.2-0.7-0.5-1c0-3.8,0-7.6,0-11.4c0.3-0.2,0.4-0.6,0.5-1c0.6-1.3,1.5-2.2,2.7-2.8
		c0.3-0.1,0.6-0.3,0.8-0.4C2468.5,101.9,2496.9,101.9,2525.4,101.9z"/>
	<path class="st0" d="M2943.8,171.2c-0.4,1-1.2,1.4-2.2,1.5c-0.2,0-0.5,0-0.7,0c-3.1,0-6.3,0-9.4,0c-0.2,0-0.5,0-0.7,0
		c-1.1-0.1-2-0.5-2.6-1.4c-0.2-0.3-0.4-0.6-0.6-0.8c-2.4-3.6-4.8-7.2-7.2-10.8c-0.9-1.3-1.8-2.7-2.6-4c-0.1-0.2-0.3-0.4-0.5-0.7
		c-0.1-0.2-0.3-0.3-0.5-0.3c-0.5-0.1-1.1-0.1-1.6,0c-0.3,0-0.4,0.2-0.5,0.5c0,0.3,0,0.7,0,1c0,4.4,0,8.7,0,13.1c0,0.4,0,0.8,0,1.1
		c-0.2,1.4-1,2.3-2.5,2.3c-1.2,0-2.5,0-3.7,0c-1.8,0-3.6,0-5.4,0c-0.6,0-1.2-0.1-1.7-0.5c-0.6-0.5-0.9-1.1-1-1.8c0-0.3,0-0.7,0-1
		c0-19.2,0-38.5,0-57.7c0-0.3,0-0.7,0-1c0.1-1.3,1.1-2.2,2.4-2.3c0.2,0,0.5,0,0.7,0c2.7,0,5.4,0,8.1,0c0.2,0,0.5,0,0.7,0
		c1.3,0.1,2.1,0.9,2.3,2.2c0.1,0.4,0.1,0.8,0.1,1.2c0,5.7,0,11.4,0,17.1c0,4.2,0,8.4,0,12.6c0,0.3,0,0.7,0,1c0,0.3,0.2,0.5,0.5,0.5
		c0.1,0,0.3,0,0.4,0c1.2,0,1.2,0,1.9-0.9c2.5-3.5,5-7,7.5-10.4c0.6-0.8,1.2-1.6,1.8-2.5c0.7-1,1.6-1.4,2.8-1.5c0.2,0,0.5,0,0.7,0
		c3,0,5.9,0,8.9,0c0.4,0,0.9,0,1.3,0.1c1,0.3,1.5,1,1.6,2c0,0.7-0.2,1.4-0.6,2c-0.4,0.6-0.8,1.1-1.2,1.6c-2.8,3.7-5.6,7.3-8.5,11
		c-0.6,0.8-1.3,1.7-1.9,2.5c-0.1,0.2-0.3,0.4-0.4,0.6c-0.2,0.2-0.1,0.4,0,0.7c0.2,0.3,0.3,0.5,0.5,0.8c2.7,4,5.5,7.9,8.2,11.9
		c1.7,2.4,3.4,4.9,5,7.3c0.3,0.4,0.5,0.8,0.7,1.2C2943.8,169.8,2943.8,170.5,2943.8,171.2z"/>
	<path class="st0" d="M2436,182.6c0.3-0.2,0.4-0.6,0.5-0.9c0.8-1.8,2.1-2.8,4-3.2c0.5-0.1,0.9-0.1,1.4-0.1c3.2,0,6.5,0,9.7,0
		c11.8,0,23.6,0,35.5,0c0.6,0,1.3,0,1.9,0.2c2.3,0.6,4,2.6,4.1,5c0,3.1,0,6.3,0,9.4c0,2.1-1.1,3.7-3,4.6c-0.3,0.2-0.6,0.3-0.9,0.4
		c-16.4,0-32.8,0-49.3,0c-0.1-0.1-0.3-0.2-0.4-0.2c-1.5-0.7-2.5-1.7-3.1-3.2c-0.1-0.2-0.2-0.4-0.4-0.6
		C2436,190.2,2436,186.4,2436,182.6z"/>
	<path class="st0" d="M2565.8,159.8c0-9.6,0-19.2,0-28.8c0-0.4,0-0.8,0-1.1c-0.1-1.1,1.1-2.6,2.6-2.5c2,0,4.1,0,6.1,0
		c0.9,0,1.7,0,2.6,0c1.7,0,2.6,0.8,2.9,2.5c0,0.2,0,0.4,0.1,0.6c0,0.1,0.2,0.2,0.3,0.1c0.2-0.1,0.3-0.3,0.5-0.4
		c2.5-2.1,5.3-3.4,8.5-3.8c3.7-0.5,7.4-0.2,11,1.2c2.6,1,5,2.4,7,4.3c4,3.7,6.3,8.4,7.2,13.8c0.3,1.9,0.4,3.7,0.3,5.6
		c-0.2,3.5-0.9,7-2.5,10.2c-2.2,4.5-5.4,7.9-9.8,10.2c-2.7,1.4-5.6,2.1-8.6,2.3c-3.4,0.2-6.6-0.3-9.7-1.5c-1.1-0.4-2.1-1-3.1-1.8
		c-0.1-0.1-0.2-0.2-0.3-0.3c-0.3-0.2-0.5-0.1-0.6,0.2c0,0.3,0,0.7,0,1c0,5.7,0,11.4,0,17.1c0,0.4,0,0.9-0.1,1.3
		c-0.1,1.4-1.3,2.4-2.6,2.3c-2.6,0-5.2,0-7.8,0c-0.5,0-1,0-1.5,0c-1.3-0.1-2.2-0.9-2.3-2.2c0-0.4,0-0.8,0-1.2
		C2565.8,179.2,2565.8,169.5,2565.8,159.8z M2580,150c0,0.8,0.1,1.5,0.2,2.2c0.9,3.9,3.1,6.5,6.8,7.8c0.7,0.3,1.5,0.4,2.3,0.5
		c1.8,0.2,3.5-0.1,5.1-0.8c2.9-1.4,4.7-3.7,5.5-6.7c0.4-1.4,0.4-2.9,0.3-4.3c-0.3-2.4-1.2-4.6-3-6.2c-2.6-2.5-5.7-3.4-9.2-2.7
		c-2.3,0.5-4.3,1.8-5.8,3.6C2580.7,145.3,2580,147.6,2580,150z"/>
	<path class="st0" d="M2677.2,127.4c1.6,0,3.1,0,4.7,0c0.3,0,0.5,0,0.8,0c0.9,0.1,1.6,0.5,2.1,1.3c0.2,0.4,0.4,0.9,0.5,1.3
		c1.5,5.1,3,10.1,4.4,15.2c1.1,3.8,2.2,7.6,3.3,11.4c0,0.1,0.1,0.3,0.1,0.4c0.2,0.6,0.3,0.6,0.9,0.7c0.8,0,0.9-0.1,1.1-0.8
		c0.7-2.6,1.4-5.2,2.1-7.8c1.7-6.2,3.4-12.5,5.1-18.7c0.1-0.5,0.3-1,0.6-1.4c0.6-0.9,1.4-1.4,2.4-1.5c0.2,0,0.3,0,0.5,0
		c3.2,0,6.3,0,9.5,0c0.4,0,0.8,0,1.2,0.1c1,0.3,1.6,1,1.7,2c0.1,0.6-0.1,1.2-0.2,1.8c-0.6,1.8-1.1,3.6-1.7,5.4
		c-2.1,6.6-4.1,13.3-6.2,19.9c-1.1,3.5-2.2,7.1-3.3,10.6c-1.3,4-2.5,8.1-3.8,12.1c-0.6,2-1.4,4-2.6,5.8c-1.7,2.7-3.8,4.9-6.6,6.4
		c-2,1.1-4.2,1.7-6.5,2c-1.2,0.1-2.4,0.2-3.7,0.2c-3.3-0.2-6.5-0.8-9.4-2.4c-1.2-0.7-2.4-1.4-3.4-2.4c-1.1-1-1.2-2.4-0.6-3.6
		c0.2-0.3,0.4-0.7,0.6-1c0.9-1.3,1.7-2.5,2.6-3.8c0.2-0.2,0.3-0.4,0.5-0.7c1-1.3,2.1-1.7,3.7-1.2c0.5,0.1,0.9,0.4,1.3,0.6
		c0.5,0.3,1,0.7,1.6,1c1,0.5,2.1,0.9,3.2,0.9c1.9,0,3.4-0.8,4.4-2.3c0.2-0.4,0.4-0.8,0.6-1.2c0.5-1.3,1-2.7,1.4-4
		c0.1-0.2,0.1-0.3,0.1-0.5c0-0.2-0.1-0.3-0.2-0.4c-0.3,0-0.5,0-0.8,0c-1.3,0-2.5,0-3.8,0c-1.8,0-2.7-0.7-3.3-2.3
		c-0.8-2.4-1.6-4.7-2.4-7.1c-1.1-3.4-2.3-6.8-3.4-10.2c-2.3-7-4.6-14-7-21.1c-0.1-0.4-0.2-0.8-0.4-1.3c-0.1-0.2-0.1-0.4-0.1-0.6
		c-0.1-1.5,0.7-2.5,2.2-2.7c0.3-0.1,0.7,0,1,0C2673.9,127.4,2675.6,127.4,2677.2,127.4z"/>
	<path class="st0" d="M2832.9,130.4c0.2-0.1,0.2-0.3,0.2-0.4c0.4-1.9,1.2-2.6,3.2-2.6c2.4,0,4.8,0,7.3,0c0.4,0,0.7,0,1.1,0
		c1.5,0,2.4,0.9,2.7,2.3c0.1,0.3,0.1,0.7,0.1,1c0,12.9,0,25.8,0,38.7c0,0.4,0,0.8-0.1,1.2c-0.3,1.1-1.2,1.9-2.3,2
		c-0.1,0-0.3,0-0.4,0c-2.9,0-5.7,0-8.6,0c-1.7,0-2.5-0.7-2.9-2.3c0-0.1,0-0.3-0.1-0.4c-0.1-0.2-0.2-0.2-0.3-0.1
		c-0.3,0.2-0.5,0.4-0.7,0.6c-2.1,1.8-4.6,2.8-7.3,3.3c-1.2,0.2-2.4,0.3-3.7,0.3c-2.2,0-4.4-0.3-6.5-1c-3.7-1.2-6.9-3.1-9.5-5.9
		c-1.7-1.8-3.1-3.9-4.2-6.1c-1.3-2.5-2-5.2-2.2-8c-0.3-3.8-0.1-7.6,1.1-11.2c1-3,2.6-5.7,4.7-8.1c3.7-4.1,8.2-6.5,13.7-7.3
		c2.6-0.4,5.2-0.3,7.7,0.3c2.6,0.6,4.9,1.7,6.8,3.6C2832.6,130.3,2832.7,130.4,2832.9,130.4z M2833.1,149.9c0-0.5,0-1.1-0.1-1.6
		c-0.8-5.6-6.2-9.8-12-8.5c-2.2,0.5-4.1,1.6-5.6,3.4c-2.5,3.1-3,6.5-1.9,10.3c1.3,4.7,6.1,7.8,10.8,7.1c2.2-0.3,4-1.2,5.6-2.7
		C2832.1,155.8,2833.1,153.1,2833.1,149.9z"/>
	<path class="st0" d="M2652.1,169.6c-0.2,0-0.3,0.1-0.4,0.2c-2.3,2.1-5,3.4-8.1,3.9c-6.2,1-11.8-0.4-16.8-4.1
		c-2.5-1.8-4.4-4.1-6-6.8c-1.6-2.7-2.6-5.6-3.1-8.7c-0.6-4.2-0.4-8.4,1-12.4c1.8-5.2,5-9.4,9.7-12.2c2.7-1.7,5.6-2.7,8.8-3.1
		c2.9-0.3,5.7-0.3,8.5,0.6c2.1,0.6,4,1.7,5.7,3.1c0.2,0.1,0.3,0.3,0.5,0.4c0.1,0.1,0.2,0,0.2-0.1c0-0.2,0-0.4,0.1-0.6
		c0.2-1.3,1.2-2.2,2.5-2.3c0.6,0,1.2,0,1.8,0c2.2,0,4.4,0,6.6,0c0.3,0,0.5,0,0.8,0c1.3,0.1,2.3,1.1,2.4,2.4c0,0.3,0,0.5,0,0.8
		c0,13,0,26,0,38.9c0,0.3,0,0.5,0,0.8c-0.1,1.3-1,2.3-2.4,2.3c-0.9,0-1.7,0-2.6,0c-2,0-4,0-6,0c-0.3,0-0.5,0-0.8,0
		c-1.3-0.1-2.2-1-2.4-2.3C2652.2,170.1,2652.4,169.8,2652.1,169.6z M2642.1,139.5c-0.6,0-1.3,0.1-1.9,0.2c-3.4,0.8-5.8,2.7-7.2,5.9
		c-0.9,1.9-1.1,4-0.8,6.1c0.3,2.2,1.2,4.2,2.8,5.8c2.4,2.4,5.2,3.5,8.6,3c2.5-0.3,4.6-1.5,6.2-3.4c2.8-3.5,3.2-7.4,1.6-11.4
		C2649.8,141.7,2645.8,139.5,2642.1,139.5z"/>
	<path class="st0" d="M2739.3,126.1c2,0,4.4,0.2,6.7,0.7c2.5,0.5,4.9,1.5,7.1,2.7c1.1,0.6,2.2,1.2,3.2,2c0.2,0.1,0.4,0.3,0.5,0.5
		c1.3,1.3,1.4,2.9,0.3,4.3c-0.4,0.5-0.8,0.9-1.2,1.4c-0.8,0.9-1.6,1.8-2.4,2.7c-1,1.2-2.3,1.5-3.8,1.1c-0.6-0.2-1.1-0.4-1.6-0.7
		c-1.5-0.9-3.1-1.7-4.7-2.4c-1.5-0.6-3.1-0.9-4.8-0.9c-1.1,0-2.2,0.1-3.3,0.6c-0.5,0.2-1,0.5-1.3,0.9c-0.6,0.7-0.7,1.6-0.1,2.3
		c0.4,0.5,1,0.9,1.7,1.1c0.8,0.3,1.6,0.5,2.5,0.7c2.7,0.5,5.5,1,8.2,1.6c2.7,0.6,5.3,1.5,7.6,3.2c2,1.4,3.6,3.2,4.5,5.6
		c0.8,2.1,1,4.2,0.7,6.4c-0.2,1.6-0.7,3.2-1.4,4.7c-1,1.9-2.3,3.5-3.9,4.8c-2.8,2.1-5.9,3.4-9.3,4.1c-1.8,0.4-3.7,0.5-5.6,0.5
		c-4.3,0-8.5-0.6-12.4-2.4c-1.5-0.7-3-1.4-4.3-2.3c-1-0.6-1.9-1.4-2.7-2.3c-0.3-0.3-0.6-0.7-0.8-1.1c-0.8-1.4-0.7-2.9,0.3-4.1
		c0.3-0.4,0.7-0.7,1-1c1.2-0.9,2.4-1.8,3.6-2.7c0.4-0.3,0.9-0.6,1.4-0.8c0.7-0.3,1.3-0.3,2-0.1c0.9,0.3,1.6,0.8,2.3,1.4
		c1.2,1,2.5,1.8,3.9,2.6c2.4,1.3,5,1.6,7.7,1.3c1.2-0.1,2.2-0.5,3.1-1.5c0.4-0.4,0.6-0.9,0.6-1.5c0-0.7-0.3-1.3-0.9-1.7
		c-0.6-0.3-1.2-0.6-1.8-0.8c-1.4-0.4-2.8-0.7-4.2-1c-2.2-0.5-4.5-0.9-6.7-1.4c-2.3-0.5-4.5-1.4-6.4-2.7c-3.5-2.4-5.2-5.7-5.4-9.9
		c-0.1-1.5,0-2.9,0.4-4.4c0.5-1.8,1.4-3.5,2.6-4.9c1.7-2.1,4-3.6,6.5-4.7c2-0.9,4.2-1.4,6.4-1.7
		C2736.3,126.1,2737.7,126.1,2739.3,126.1z"/>
	<path class="st0" d="M2875.6,126.1c3.2-0.1,6.1,0.4,8.9,1.4c3,1,5.6,2.7,7.9,4.8c1.2,1.1,2.2,2.2,3.1,3.5c0.1,0.2,0.3,0.4,0.4,0.6
		c1.1,1.7,0.4,3.3-0.6,4.3c-0.1,0.1-0.3,0.3-0.5,0.4c-1.7,1.3-3.4,2.6-5.1,3.9c-1.7,1.3-2.9,1.1-4.3-0.1c-0.3-0.2-0.5-0.5-0.7-0.7
		c-0.9-1-1.9-2-3-2.8c-1.5-1.2-3.3-1.7-5.1-1.8c-3.1-0.2-5.8,0.9-8,3.1c-1.3,1.3-2.1,2.9-2.5,4.7c-0.5,2.1-0.4,4.3,0.3,6.3
		c1.3,3.7,3.9,6,7.8,6.7c1.6,0.3,3.2,0.1,4.8-0.3c1.5-0.4,2.7-1.3,3.8-2.3c0.7-0.7,1.4-1.4,2.1-2.1c0.5-0.5,1-0.9,1.6-1.2
		c0.8-0.4,1.5-0.4,2.3,0c0.3,0.2,0.7,0.4,1,0.6c1.7,1.3,3.4,2.5,5.1,3.8c0.5,0.4,0.9,0.9,1.3,1.4c0.6,1,0.6,2.1,0,3.1
		c-0.5,0.8-1,1.5-1.6,2.2c-2.1,2.5-4.7,4.4-7.6,5.9c-2.2,1.1-4.5,1.7-6.9,2.1c-1.3,0.2-2.6,0.2-3.9,0.3c-1.1,0.1-2.2-0.1-3.3-0.2
		c-3.1-0.3-6.1-1.2-8.8-2.7c-5.2-2.8-9-7-11.1-12.6c-0.8-2.2-1.2-4.4-1.4-6.7c-0.3-3.5,0.2-6.9,1.4-10.2c2.1-5.5,5.7-9.7,10.9-12.5
		c2.4-1.3,5-2.2,7.7-2.7C2872.9,126.2,2874.3,126.1,2875.6,126.1z"/>
	<path class="st0" d="M2768.4,150.2c0-3,0-6,0-9c0-1.5,0-1.5-1.6-1.5c-0.9,0-1.8,0-2.7,0c-0.4,0-0.8,0-1.2-0.1
		c-1.2-0.2-2.1-1.1-2.2-2.4c0-0.2,0-0.5,0-0.7c0-2,0-4,0-6c0-0.2,0-0.4,0-0.6c0.1-1.4,1.1-2.4,2.5-2.5c1.1,0,2.2,0,3.4,0
		c0.4,0,0.8,0,1.1,0c0.4,0,0.5-0.2,0.6-0.6c0-0.3,0-0.6,0-0.9c0-2.9,0-5.8,0-8.7c0-0.4,0-0.8,0-1.1c0.2-1.2,1-2,2.2-2.3
		c0.3-0.1,0.7-0.1,1-0.1c2.7,0,5.4,0,8.1,0c0.4,0,0.8,0,1.2,0.1c1,0.3,1.6,0.9,1.9,2c0.1,0.5,0.1,1,0.1,1.5c0,2.9,0,5.7,0,8.6
		c0,0.3,0,0.6,0,0.9c0,0.3,0.2,0.5,0.5,0.5c0.3,0,0.6,0,0.9,0c3.2,0,6.3,0,9.5,0c0.3,0,0.6,0,0.9,0c1.4,0.1,2.5,1.2,2.5,2.6
		c0,2.3,0,4.6,0,6.8c0,1.4-0.9,2.4-2.2,2.7c-0.5,0.1-1.1,0.1-1.6,0.1c-3,0-6,0-9,0c-0.3,0-0.6,0-0.9,0c-0.4,0-0.5,0.2-0.6,0.6
		c0,0.2,0,0.5,0,0.7c0,5,0,9.9,0,14.9c0,0.4,0,0.8,0,1.1c0.2,1.8,1.5,3.1,3.4,3.2c1.3,0.1,2.4-0.3,3.5-0.9c0.3-0.1,0.5-0.3,0.8-0.5
		c0.4-0.2,0.7-0.4,1.1-0.5c1.1-0.3,2.2,0,2.9,1c0.3,0.4,0.6,0.9,0.9,1.4c0.7,1.2,1.4,2.3,2.2,3.5c0.1,0.2,0.3,0.5,0.4,0.7
		c0.8,1.4,0.6,2.6-0.5,3.9c-0.8,0.9-1.8,1.7-2.9,2.3c-2.2,1.3-4.6,2-7.1,2.4c-1.6,0.2-3.2,0.3-4.8,0.2c-3.2-0.2-6.2-1-8.9-3
		c-2.8-2-4.5-4.8-5.2-8.2c-0.3-1.3-0.4-2.6-0.4-3.9C2768.4,155.8,2768.4,153,2768.4,150.2z"/>
</g>
</svg>
